<?xml version="1.0" encoding="UTF-8" standalone="no"?>
<svg width="178px" height="135px" viewBox="0 0 178 135" version="1.1" xmlns="http://www.w3.org/2000/svg" xmlns:xlink="http://www.w3.org/1999/xlink">
    <!-- Generator: Sketch 3.8.3 (29802) - http://www.bohemiancoding.com/sketch -->
    <title>online-shop</title>
    <desc>Created with Sketch.</desc>
    <defs></defs>
    <g id="Theme-Selection" stroke="none" stroke-width="1" fill="none" fill-rule="evenodd">
        <g id="Select-Type" transform="translate(-750.000000, -455.000000)">
            <g id="Group-2" transform="translate(512.000000, 396.000000)">
                <g id="online-shop" transform="translate(238.000000, 59.000000)">
                    <path d="M168.103365,0.2745 L9.16936257,0.2745 C4.10531783,0.2745 0,4.37884615 0,9.44169231 L0,125.558308 C0,130.621154 4.10531783,134.7255 9.16936257,134.7255 L168.103365,134.7255 C173.167409,134.7255 177.272727,130.621154 177.272727,125.558308 L177.272727,9.44169231 C177.272727,4.37884615 173.167409,0.2745 168.103365,0.2745 L168.103365,0.2745 Z M152.821209,6.38584615 L155.877779,6.38584615 C157.565678,6.38584615 158.934348,7.75419231 158.934348,9.44169231 C158.934348,11.1291923 157.565678,12.4975385 155.877779,12.4975385 L152.821209,12.4975385 C151.13331,12.4975385 149.76464,11.1291923 149.76464,9.44169231 C149.764986,7.75419231 151.13331,6.38584615 152.821209,6.38584615 L152.821209,6.38584615 Z M67.2414151,6.38584615 L140.595623,6.38584615 C142.283523,6.38584615 143.652193,7.75419231 143.652193,9.44169231 C143.652193,11.1291923 142.283523,12.4975385 140.595623,12.4975385 L67.2414151,12.4975385 C65.5535156,12.4975385 64.1848455,11.1291923 64.1848455,9.44169231 C64.1848455,7.75419231 65.5535156,6.38584615 67.2414151,6.38584615 L67.2414151,6.38584615 Z M51.9592596,6.38584615 L55.0158292,6.38584615 C56.7037287,6.38584615 58.0723988,7.75419231 58.0723988,9.44169231 C58.0723988,11.1291923 56.7037287,12.4975385 55.0158292,12.4975385 L51.9592596,12.4975385 C50.2713601,12.4975385 48.90269,11.1291923 48.90269,9.44169231 C48.90269,7.75419231 50.2713601,6.38584615 51.9592596,6.38584615 L51.9592596,6.38584615 Z M39.7336737,6.38584615 L42.7902433,6.38584615 C44.4781428,6.38584615 45.8468129,7.75419231 45.8468129,9.44169231 C45.8468129,11.1291923 44.4781428,12.4975385 42.7902433,12.4975385 L39.7336737,12.4975385 C38.0457741,12.4975385 36.677104,11.1291923 36.677104,9.44169231 C36.677104,7.75419231 38.0457741,6.38584615 39.7336737,6.38584615 L39.7336737,6.38584615 Z M27.5077415,6.38584615 C29.195641,6.38584615 30.5643111,7.75419231 30.5643111,9.44169231 C30.5643111,11.1291923 29.195641,12.4975385 27.5077415,12.4975385 C25.819842,12.4975385 24.4511719,11.1291923 24.4511719,9.44169231 C24.4515181,7.75419231 25.819842,6.38584615 27.5077415,6.38584615 L27.5077415,6.38584615 Z M18.3387251,6.38584615 C20.0266246,6.38584615 21.3952947,7.75419231 21.3952947,9.44169231 C21.3952947,11.1291923 20.0266246,12.4975385 18.3387251,12.4975385 C16.6508256,12.4975385 15.2821555,11.1291923 15.2821555,9.44169231 C15.2821555,7.75419231 16.6504794,6.38584615 18.3387251,6.38584615 L18.3387251,6.38584615 Z M9.16936257,6.38584615 C10.8572621,6.38584615 12.2259322,7.75419231 12.2259322,9.44169231 C12.2259322,11.1291923 10.8572621,12.4975385 9.16936257,12.4975385 C7.48146307,12.4975385 6.11279297,11.1291923 6.11279297,9.44169231 C6.11279297,7.75419231 7.48146307,6.38584615 9.16936257,6.38584615 L9.16936257,6.38584615 Z M171.159934,36.9429231 L171.159934,125.558308 C171.159934,127.245808 169.791264,128.614154 168.103365,128.614154 L9.16936257,128.614154 C7.48146307,128.614154 6.11279297,127.245808 6.11279297,125.558308 L6.11279297,36.9429231 L6.11279297,21.6643846 C6.11279297,19.9768846 7.48146307,18.6085385 9.16936257,18.6085385 L168.103365,18.6085385 C169.791264,18.6085385 171.159934,19.9768846 171.159934,21.6643846 L171.159934,36.9429231 L171.159934,36.9429231 Z M168.103365,12.4971923 L165.046795,12.4971923 C163.358896,12.4971923 161.990225,11.1288462 161.990225,9.44134615 C161.990225,7.75384615 163.358896,6.3855 165.046795,6.3855 L168.103365,6.3855 C169.791264,6.3855 171.159934,7.75384615 171.159934,9.44134615 C171.159934,11.1291923 169.791264,12.4971923 168.103365,12.4971923 L168.103365,12.4971923 Z" id="Shape" fill="#D2DCF0"></path>
                    <path d="M6.11279297,125.558308 C6.11279297,127.245808 7.48146307,128.614154 9.16936257,128.614154 L168.103365,128.614154 C169.791264,128.614154 171.159934,127.245808 171.159934,125.558308 L171.159934,36.9429231 L6.11279297,36.9429231 L6.11279297,125.558308 L6.11279297,125.558308 Z M137.539054,52.2214615 L137.539054,49.1656154 C137.539054,47.4781154 138.907724,46.1097692 140.595623,46.1097692 L158.934348,46.1097692 C160.622248,46.1097692 161.990918,47.4781154 161.990918,49.1656154 L161.990918,52.2214615 L161.990918,76.6671923 C161.990918,78.3546923 160.622248,79.7230385 158.934348,79.7230385 L140.595623,79.7230385 C138.907724,79.7230385 137.539054,78.3546923 137.539054,76.6671923 L137.539054,52.2214615 L137.539054,52.2214615 Z M103.918519,52.2214615 L103.918519,49.1656154 C103.918519,47.4781154 105.287189,46.1097692 106.975089,46.1097692 L125.313814,46.1097692 C127.001713,46.1097692 128.370384,47.4781154 128.370384,49.1656154 L128.370384,52.2214615 L128.370384,76.6671923 C128.370384,78.3546923 127.001713,79.7230385 125.313814,79.7230385 L106.975089,79.7230385 C105.287189,79.7230385 103.918519,78.3546923 103.918519,76.6671923 L103.918519,52.2214615 L103.918519,52.2214615 Z M103.918519,91.9457308 C103.918519,90.2582308 105.287189,88.8898846 106.975089,88.8898846 L110.031658,88.8898846 L158.934348,88.8898846 C160.622248,88.8898846 161.990918,90.2582308 161.990918,91.9457308 L161.990918,116.391462 C161.990918,118.078962 160.622248,119.447308 158.934348,119.447308 L110.031312,119.447308 L106.974743,119.447308 C105.286843,119.447308 103.918173,118.078962 103.918173,116.391462 L103.918173,91.9457308 L103.918519,91.9457308 Z M70.2976385,52.2214615 L70.2976385,49.1656154 C70.2976385,47.4781154 71.6663086,46.1097692 73.3542081,46.1097692 L91.6929332,46.1097692 C93.3808327,46.1097692 94.7495028,47.4781154 94.7495028,49.1656154 L94.7495028,52.2214615 L94.7495028,76.6671923 C94.7495028,78.3546923 93.3808327,79.7230385 91.6929332,79.7230385 L73.3542081,79.7230385 C71.6663086,79.7230385 70.2976385,78.3546923 70.2976385,76.6671923 L70.2976385,52.2214615 L70.2976385,52.2214615 Z M15.2821555,52.2214615 L15.2821555,49.1656154 C15.2821555,47.4781154 16.6508256,46.1097692 18.3387251,46.1097692 L58.0723988,46.1097692 C59.7602983,46.1097692 61.1289684,47.4781154 61.1289684,49.1656154 L61.1289684,52.2214615 L61.1289684,76.6671923 C61.1289684,78.3546923 59.7602983,79.7230385 58.0723988,79.7230385 L18.3387251,79.7230385 C16.6508256,79.7230385 15.2821555,78.3546923 15.2821555,76.6671923 L15.2821555,52.2214615 L15.2821555,52.2214615 Z M15.2821555,91.9457308 C15.2821555,90.2582308 16.6508256,88.8898846 18.3387251,88.8898846 L21.3952947,88.8898846 L91.6929332,88.8898846 C93.3808327,88.8898846 94.7495028,90.2582308 94.7495028,91.9457308 L94.7495028,116.391462 C94.7495028,118.078962 93.3808327,119.447308 91.6929332,119.447308 L21.3949485,119.447308 L18.3383789,119.447308 C16.6504794,119.447308 15.2818093,118.078962 15.2818093,116.391462 L15.2818093,91.9457308 L15.2821555,91.9457308 Z" id="Shape" fill="#FFFFFF"></path>
                    <ellipse id="Oval" fill="#FF6469" cx="9.16936257" cy="9.44169231" rx="3.0565696" ry="3.05584615"></ellipse>
                    <ellipse id="Oval" fill="#FFE169" cx="18.3387251" cy="9.44169231" rx="3.0565696" ry="3.05584615"></ellipse>
                    <ellipse id="Oval" fill="#87E1AA" cx="27.5077415" cy="9.44169231" rx="3.0565696" ry="3.05584615"></ellipse>
                    <g id="Group" transform="translate(36.354759, 6.230769)" fill="#E4EAF6">
                        <path d="M3.37891513,6.26642308 L6.43548473,6.26642308 C8.12338423,6.26642308 9.49205433,4.89807692 9.49205433,3.21057692 C9.49205433,1.52307692 8.12338423,0.154730769 6.43548473,0.154730769 L3.37891513,0.154730769 C1.69101563,0.154730769 0.322345526,1.52307692 0.322345526,3.21057692 C0.322345526,4.89842308 1.69101563,6.26642308 3.37891513,6.26642308 L3.37891513,6.26642308 Z" id="Shape"></path>
                        <path d="M15.6045011,6.26642308 L18.6610707,6.26642308 C20.3489702,6.26642308 21.7176403,4.89807692 21.7176403,3.21057692 C21.7176403,1.52307692 20.3489702,0.154730769 18.6610707,0.154730769 L15.6045011,0.154730769 C13.9166016,0.154730769 12.5479315,1.52307692 12.5479315,3.21057692 C12.5479315,4.89842308 13.9166016,6.26642308 15.6045011,6.26642308 L15.6045011,6.26642308 Z" id="Shape"></path>
                        <path d="M116.466451,6.26642308 L119.52302,6.26642308 C121.21092,6.26642308 122.57959,4.89807692 122.57959,3.21057692 C122.57959,1.52307692 121.21092,0.154730769 119.52302,0.154730769 L116.466451,0.154730769 C114.778551,0.154730769 113.409881,1.52307692 113.409881,3.21057692 C113.410227,4.89842308 114.778551,6.26642308 116.466451,6.26642308 L116.466451,6.26642308 Z" id="Shape"></path>
                        <path d="M131.748606,0.155076923 L128.692037,0.155076923 C127.004137,0.155076923 125.635467,1.52342308 125.635467,3.21092308 C125.635467,4.89842308 127.004137,6.26676923 128.692037,6.26676923 L131.748606,6.26676923 C133.436506,6.26676923 134.805176,4.89842308 134.805176,3.21092308 C134.805176,1.52342308 133.436506,0.155076923 131.748606,0.155076923 L131.748606,0.155076923 Z" id="Shape"></path>
                        <path d="M30.8866566,6.26642308 L104.240865,6.26642308 C105.928764,6.26642308 107.297434,4.89807692 107.297434,3.21057692 C107.297434,1.52307692 105.928764,0.154730769 104.240865,0.154730769 L30.8866566,0.154730769 C29.1987571,0.154730769 27.830087,1.52307692 27.830087,3.21057692 C27.830087,4.89842308 29.1987571,6.26642308 30.8866566,6.26642308 L30.8866566,6.26642308 Z" id="Shape"></path>
                    </g>
                    <path d="M168.103365,18.6088846 L9.16936257,18.6088846 C7.48146307,18.6088846 6.11279297,19.9772308 6.11279297,21.6647308 L6.11279297,36.9432692 L171.159934,36.9432692 L171.159934,21.6647308 C171.159934,19.9768846 169.791264,18.6088846 168.103365,18.6088846 L168.103365,18.6088846 Z M39.7336737,30.8315769 L15.2821555,30.8315769 C13.594256,30.8315769 12.2255859,29.4632308 12.2255859,27.7757308 C12.2255859,26.0882308 13.594256,24.7198846 15.2821555,24.7198846 L39.7336737,24.7198846 C41.4215732,24.7198846 42.7902433,26.0882308 42.7902433,27.7757308 C42.7902433,29.4632308 41.4215732,30.8315769 39.7336737,30.8315769 L39.7336737,30.8315769 Z M64.1848455,30.8315769 L51.9592596,30.8315769 C50.2713601,30.8315769 48.90269,29.4632308 48.90269,27.7757308 C48.90269,26.0882308 50.2713601,24.7198846 51.9592596,24.7198846 L64.1848455,24.7198846 C65.872745,24.7198846 67.2414151,26.0882308 67.2414151,27.7757308 C67.2414151,29.4632308 65.872745,30.8315769 64.1848455,30.8315769 L64.1848455,30.8315769 Z M88.6363636,30.8315769 L76.4107777,30.8315769 C74.7228782,30.8315769 73.3542081,29.4632308 73.3542081,27.7757308 C73.3542081,26.0882308 74.7228782,24.7198846 76.4107777,24.7198846 L88.6363636,24.7198846 C90.3242631,24.7198846 91.6929332,26.0882308 91.6929332,27.7757308 C91.6929332,29.4632308 90.3242631,30.8315769 88.6363636,30.8315769 L88.6363636,30.8315769 Z M113.087882,30.8315769 L100.862296,30.8315769 C99.1743963,30.8315769 97.8057262,29.4632308 97.8057262,27.7757308 C97.8057262,26.0882308 99.1743963,24.7198846 100.862296,24.7198846 L113.087882,24.7198846 C114.775781,24.7198846 116.144451,26.0882308 116.144451,27.7757308 C116.144451,29.4632308 114.775781,30.8315769 113.087882,30.8315769 L113.087882,30.8315769 Z M137.539054,30.8315769 L125.313468,30.8315769 C123.625568,30.8315769 122.256898,29.4632308 122.256898,27.7757308 C122.256898,26.0882308 123.625568,24.7198846 125.313468,24.7198846 L137.539054,24.7198846 C139.226953,24.7198846 140.595623,26.0882308 140.595623,27.7757308 C140.595623,29.4632308 139.226953,30.8315769 137.539054,30.8315769 L137.539054,30.8315769 Z M161.990572,30.8315769 L149.764986,30.8315769 C148.077086,30.8315769 146.708416,29.4632308 146.708416,27.7757308 C146.708416,26.0882308 148.077086,24.7198846 149.764986,24.7198846 L161.990572,24.7198846 C163.678471,24.7198846 165.047141,26.0882308 165.047141,27.7757308 C165.047141,29.4632308 163.678471,30.8315769 161.990572,30.8315769 L161.990572,30.8315769 Z" id="Shape" fill="#FF6469"></path>
                    <path d="M39.7336737,24.7202308 L15.2821555,24.7202308 C13.594256,24.7202308 12.2255859,26.0885769 12.2255859,27.7760769 C12.2255859,29.4635769 13.594256,30.8319231 15.2821555,30.8319231 L39.7336737,30.8319231 C41.4215732,30.8319231 42.7902433,29.4635769 42.7902433,27.7760769 C42.7902433,26.0885769 41.4215732,24.7202308 39.7336737,24.7202308 L39.7336737,24.7202308 Z" id="Shape" fill="#FFDC69"></path>
                    <g id="Group" transform="translate(48.819247, 24.576923)" fill="#D2555F">
                        <path d="M15.3655984,0.143307692 L3.14001243,0.143307692 C1.45211293,0.143307692 0.0834428267,1.51165385 0.0834428267,3.19915385 C0.0834428267,4.88665385 1.45211293,6.255 3.14001243,6.255 L15.3655984,6.255 C17.0534979,6.255 18.422168,4.88665385 18.422168,3.19915385 C18.422168,1.51165385 17.0534979,0.143307692 15.3655984,0.143307692 L15.3655984,0.143307692 Z" id="Shape"></path>
                        <path d="M39.8171165,0.143307692 L27.5915305,0.143307692 C25.903631,0.143307692 24.5349609,1.51165385 24.5349609,3.19915385 C24.5349609,4.88665385 25.903631,6.255 27.5915305,6.255 L39.8171165,6.255 C41.505016,6.255 42.8736861,4.88665385 42.8736861,3.19915385 C42.8736861,1.51165385 41.505016,0.143307692 39.8171165,0.143307692 L39.8171165,0.143307692 Z" id="Shape"></path>
                        <path d="M64.2686346,0.143307692 L52.0430487,0.143307692 C50.3551491,0.143307692 48.986479,1.51165385 48.986479,3.19915385 C48.986479,4.88665385 50.3551491,6.255 52.0430487,6.255 L64.2686346,6.255 C65.9565341,6.255 67.3252042,4.88665385 67.3252042,3.19915385 C67.3252042,1.51165385 65.9565341,0.143307692 64.2686346,0.143307692 L64.2686346,0.143307692 Z" id="Shape"></path>
                        <path d="M88.7198065,0.143307692 L76.4942205,0.143307692 C74.806321,0.143307692 73.4376509,1.51165385 73.4376509,3.19915385 C73.4376509,4.88665385 74.806321,6.255 76.4942205,6.255 L88.7198065,6.255 C90.407706,6.255 91.7763761,4.88665385 91.7763761,3.19915385 C91.7763761,1.51165385 90.407706,0.143307692 88.7198065,0.143307692 L88.7198065,0.143307692 Z" id="Shape"></path>
                        <path d="M113.171325,0.143307692 L100.945739,0.143307692 C99.2578391,0.143307692 97.889169,1.51165385 97.889169,3.19915385 C97.889169,4.88665385 99.2578391,6.255 100.945739,6.255 L113.171325,6.255 C114.859224,6.255 116.227894,4.88665385 116.227894,3.19915385 C116.227894,1.51165385 114.859224,0.143307692 113.171325,0.143307692 L113.171325,0.143307692 Z" id="Shape"></path>
                    </g>
                    <g id="Group" transform="translate(15.234375, 51.923077)" fill="#DEE3ED">
                        <path d="M3.10435014,27.7996154 L42.8380238,27.7996154 C44.5259233,27.7996154 45.8945934,26.4312692 45.8945934,24.7437692 L45.8945934,0.298038462 C45.8945934,1.98553846 44.5259233,3.35388462 42.8380238,3.35388462 L3.10435014,3.35388462 C1.41645064,3.35388462 0.0477805398,1.98553846 0.0477805398,0.298038462 L0.0477805398,24.7437692 C0.0477805398,26.4316154 1.4161044,27.7996154 3.10435014,27.7996154 L3.10435014,27.7996154 Z" id="Shape"></path>
                        <path d="M58.1198331,27.7996154 L76.4585582,27.7996154 C78.1464577,27.7996154 79.5151278,26.4312692 79.5151278,24.7437692 L79.5151278,0.298038462 C79.5151278,1.98553846 78.1464577,3.35388462 76.4585582,3.35388462 L58.1198331,3.35388462 C56.4319336,3.35388462 55.0632635,1.98553846 55.0632635,0.298038462 L55.0632635,24.7437692 C55.0632635,26.4316154 56.4319336,27.7996154 58.1198331,27.7996154 L58.1198331,27.7996154 Z" id="Shape"></path>
                        <path d="M91.7407138,27.7996154 L110.079439,27.7996154 C111.767338,27.7996154 113.136009,26.4312692 113.136009,24.7437692 L113.136009,0.298038462 C113.136009,1.98553846 111.767338,3.35388462 110.079439,3.35388462 L91.7407138,3.35388462 C90.0528143,3.35388462 88.6841442,1.98553846 88.6841442,0.298038462 L88.6841442,24.7437692 C88.6841442,26.4316154 90.052468,27.7996154 91.7407138,27.7996154 L91.7407138,27.7996154 Z" id="Shape"></path>
                        <path d="M125.361248,27.7996154 L143.699973,27.7996154 C145.387873,27.7996154 146.756543,26.4312692 146.756543,24.7437692 L146.756543,0.298038462 C146.756543,1.98553846 145.387873,3.35388462 143.699973,3.35388462 L125.361248,3.35388462 C123.673349,3.35388462 122.304679,1.98553846 122.304679,0.298038462 L122.304679,24.7437692 C122.304679,26.4316154 123.673349,27.7996154 125.361248,27.7996154 L125.361248,27.7996154 Z" id="Shape"></path>
                    </g>
                    <path d="M18.3387251,55.2773077 L58.0723988,55.2773077 C59.7602983,55.2773077 61.1289684,53.9089615 61.1289684,52.2214615 L61.1289684,49.1656154 C61.1289684,47.4781154 59.7602983,46.1097692 58.0723988,46.1097692 L18.3387251,46.1097692 C16.6508256,46.1097692 15.2821555,47.4781154 15.2821555,49.1656154 L15.2821555,52.2214615 C15.2821555,53.9089615 16.6504794,55.2773077 18.3387251,55.2773077 L18.3387251,55.2773077 Z" id="Shape" fill="#FFDC69"></path>
                    <path d="M73.3542081,55.2773077 L91.6929332,55.2773077 C93.3808327,55.2773077 94.7495028,53.9089615 94.7495028,52.2214615 L94.7495028,49.1656154 C94.7495028,47.4781154 93.3808327,46.1097692 91.6929332,46.1097692 L73.3542081,46.1097692 C71.6663086,46.1097692 70.2976385,47.4781154 70.2976385,49.1656154 L70.2976385,52.2214615 C70.2976385,53.9089615 71.6663086,55.2773077 73.3542081,55.2773077 L73.3542081,55.2773077 Z" id="Shape" fill="#B4E173"></path>
                    <path d="M106.975089,55.2773077 L125.313814,55.2773077 C127.001713,55.2773077 128.370384,53.9089615 128.370384,52.2214615 L128.370384,49.1656154 C128.370384,47.4781154 127.001713,46.1097692 125.313814,46.1097692 L106.975089,46.1097692 C105.287189,46.1097692 103.918519,47.4781154 103.918519,49.1656154 L103.918519,52.2214615 C103.918519,53.9089615 105.286843,55.2773077 106.975089,55.2773077 L106.975089,55.2773077 Z" id="Shape" fill="#FF969B"></path>
                    <path d="M140.595623,55.2773077 L158.934348,55.2773077 C160.622248,55.2773077 161.990918,53.9089615 161.990918,52.2214615 L161.990918,49.1656154 C161.990918,47.4781154 160.622248,46.1097692 158.934348,46.1097692 L140.595623,46.1097692 C138.907724,46.1097692 137.539054,47.4781154 137.539054,49.1656154 L137.539054,52.2214615 C137.539054,53.9089615 138.907724,55.2773077 140.595623,55.2773077 L140.595623,55.2773077 Z" id="Shape" fill="#A0DCF0"></path>
                    <g id="Group" transform="translate(21.120384, 88.615385)" fill="#DEE3ED">
                        <path d="M3.33113459,3.33034615 L3.33113459,27.7760769 C3.33113459,29.4635769 1.96246449,30.8319231 0.274564986,30.8319231 L70.5722035,30.8319231 C72.260103,30.8319231 73.6287731,29.4635769 73.6287731,27.7760769 L73.6287731,3.33034615 C73.6287731,1.64284615 72.260103,0.2745 70.5722035,0.2745 L0.274564986,0.2745 C1.96246449,0.2745 3.33113459,1.64284615 3.33113459,3.33034615 L3.33113459,3.33034615 Z" id="Shape"></path>
                        <path d="M91.9674982,3.33034615 L91.9674982,27.7760769 C91.9674982,29.4635769 90.5988281,30.8319231 88.9109286,30.8319231 L137.813619,30.8319231 C139.501518,30.8319231 140.870188,29.4635769 140.870188,27.7760769 L140.870188,3.33034615 C140.870188,1.64284615 139.501518,0.2745 137.813619,0.2745 L88.9109286,0.2745 C90.5988281,0.2745 91.9674982,1.64284615 91.9674982,3.33034615 L91.9674982,3.33034615 Z" id="Shape"></path>
                    </g>
                    <path d="M18.3387251,119.446962 L21.3952947,119.446962 C23.0831942,119.446962 24.4518643,118.078615 24.4518643,116.391115 L24.4518643,91.9453846 C24.4518643,90.2578846 23.0831942,88.8895385 21.3952947,88.8895385 L18.3387251,88.8895385 C16.6508256,88.8895385 15.2821555,90.2578846 15.2821555,91.9453846 L15.2821555,116.391115 C15.2821555,118.078615 16.6504794,119.446962 18.3387251,119.446962 L18.3387251,119.446962 Z" id="Shape" fill="#C3B4FA"></path>
                    <path d="M106.975089,119.446962 L110.031658,119.446962 C111.719558,119.446962 113.088228,118.078615 113.088228,116.391115 L113.088228,91.9453846 C113.088228,90.2578846 111.719558,88.8895385 110.031658,88.8895385 L106.975089,88.8895385 C105.287189,88.8895385 103.918519,90.2578846 103.918519,91.9453846 L103.918519,116.391115 C103.918519,118.078615 105.286843,119.446962 106.975089,119.446962 L106.975089,119.446962 Z" id="Shape" fill="#91E6BE"></path>
                </g>
            </g>
        </g>
    </g>
</svg>